<?xml version="1.0" standalone="no"?>
<!DOCTYPE svg PUBLIC "-//W3C//DTD SVG 20010904//EN"
 "http://www.w3.org/TR/2001/REC-SVG-20010904/DTD/svg10.dtd">
<svg version="1.0" xmlns="http://www.w3.org/2000/svg"
 width="860.000000pt" height="860.000000pt" viewBox="0 0 860.000000 860.000000"
 preserveAspectRatio="xMidYMid meet">
<metadata>
Created by potrace 1.11, written by Peter Selinger 2001-2013
</metadata>
<g transform="translate(0.000000,860.000000) scale(0.100000,-0.100000)"
fill="#000000" stroke="none">
<path d="M4245 7171 c-17 -10 -42 -31 -55 -47 -20 -23 -149 -238 -189 -314
-13 -25 -28 -52 -68 -120 -63 -108 -54 -144 31 -135 190 22 261 25 417 21 104
-2 185 -9 198 -15 12 -7 21 -8 21 -2 0 6 12 6 32 0 39 -11 99 -12 113 -1 21
15 15 44 -21 110 -21 37 -40 69 -43 72 -3 3 -17 25 -31 50 -13 25 -39 70 -56
100 -18 30 -45 79 -60 108 -16 28 -32 52 -36 52 -4 0 -8 6 -8 13 0 20 -68 95
-101 112 -39 21 -108 19 -144 -4z"/>
<path d="M2402 6505 c-24 -18 -43 -37 -43 -42 0 -4 -4 -26 -10 -48 -9 -33 -6
-69 16 -200 27 -165 31 -186 38 -220 7 -33 28 -158 31 -189 3 -28 28 -56 51
-56 6 0 73 62 150 138 151 148 322 284 401 321 12 5 23 13 25 18 2 4 18 15 34
23 34 17 45 59 22 79 -8 6 -48 23 -88 36 -41 14 -83 29 -94 34 -61 26 -77 31
-85 26 -4 -3 -11 2 -14 11 -4 9 -9 14 -13 11 -3 -4 -14 -2 -25 4 -11 6 -28 12
-38 14 -11 2 -35 11 -54 20 -19 9 -40 14 -45 10 -6 -3 -11 -1 -11 4 0 6 -8 11
-18 11 -10 0 -23 5 -30 12 -6 6 -44 13 -84 15 -70 2 -75 1 -116 -32z"/>
<path d="M6035 6500 c-95 -32 -423 -151 -480 -174 -33 -13 -41 -22 -43 -45 -2
-25 5 -34 48 -60 28 -17 53 -31 56 -30 4 0 10 -3 13 -8 3 -5 50 -42 103 -82
54 -40 136 -109 183 -154 47 -45 85 -81 85 -80 0 1 20 -20 45 -46 25 -26 45
-52 45 -57 0 -5 14 -17 31 -26 58 -34 68 -16 100 177 6 39 15 75 20 80 4 6 4
17 -1 24 -4 8 -4 21 0 30 12 22 33 142 26 149 -3 3 0 12 6 20 14 16 22 202 9
202 -5 0 -12 11 -15 24 -8 32 -54 64 -102 72 -22 3 -41 7 -44 9 -3 1 -41 -10
-85 -25z"/>
<path d="M4100 6371 c-36 -4 -71 -11 -78 -15 -7 -4 -12 -2 -12 4 0 6 -4 9 -9
6 -5 -3 -42 -13 -83 -21 -40 -8 -84 -17 -98 -20 -14 -3 -34 -8 -45 -9 -42 -8
-244 -76 -325 -111 -94 -40 -255 -123 -279 -143 -9 -7 -54 -38 -100 -69 -90
-60 -96 -64 -210 -164 -133 -116 -280 -286 -374 -434 -17 -27 -35 -51 -39 -53
-5 -2 -8 -10 -8 -18 0 -8 -5 -14 -12 -14 -6 0 -9 -3 -5 -6 3 -3 -8 -28 -24
-55 -16 -28 -29 -53 -29 -56 0 -4 -6 -14 -13 -22 -7 -9 -19 -34 -26 -56 -7
-22 -20 -48 -29 -57 -8 -10 -12 -18 -9 -18 3 0 -6 -28 -19 -61 -30 -73 -94
-303 -94 -336 0 -13 -4 -23 -9 -23 -5 0 -7 -8 -4 -19 3 -10 0 -22 -5 -25 -6
-3 -8 -14 -5 -25 2 -10 0 -35 -5 -55 -7 -24 -7 -36 0 -36 6 0 4 -10 -4 -22 -9
-14 -12 -31 -8 -43 4 -11 6 -23 4 -26 -12 -20 -14 -183 -4 -309 11 -150 20
-209 52 -344 10 -44 16 -81 13 -84 -2 -3 3 -11 13 -18 12 -10 13 -13 3 -14 -9
0 -10 -4 -4 -12 8 -10 43 -104 48 -128 1 -3 8 -21 17 -41 9 -20 19 -47 23 -60
14 -43 121 -244 171 -320 27 -41 51 -78 52 -82 2 -4 17 -22 33 -40 16 -17 29
-35 29 -38 0 -10 61 -79 165 -188 132 -137 248 -227 470 -367 17 -10 32 -19
35 -20 16 -3 49 -20 73 -36 15 -11 27 -16 27 -12 0 4 8 0 18 -8 9 -8 38 -23
65 -33 26 -10 47 -22 47 -27 0 -5 4 -6 10 -3 5 3 20 0 32 -7 13 -6 30 -13 38
-14 22 -4 124 -38 130 -44 3 -3 12 -6 20 -7 8 -1 69 -13 135 -27 101 -21 260
-42 340 -45 69 -3 147 -1 155 4 5 3 11 1 15 -4 3 -7 15 -7 30 -1 13 5 27 5 30
1 3 -5 22 -5 42 -1 21 5 83 14 138 21 55 6 109 13 120 15 51 9 242 60 255 69
8 5 21 10 28 11 80 12 446 194 509 253 12 12 26 21 30 21 10 0 40 23 130 98
34 28 67 52 73 52 6 0 8 4 5 10 -3 5 1 10 9 10 8 0 18 9 21 20 3 11 10 20 15
20 9 0 82 74 147 150 21 24 45 51 53 60 8 9 35 45 60 80 24 36 48 67 52 68 4
2 8 7 8 11 0 4 29 55 63 114 67 112 163 329 194 435 9 34 21 62 26 62 4 0 6 4
3 9 -4 5 3 47 14 93 31 135 60 366 60 488 0 113 -28 347 -57 474 -8 37 -16 73
-18 80 -1 6 -4 18 -7 26 -3 8 -20 60 -38 115 -17 55 -48 134 -67 175 -20 41
-37 77 -38 80 -5 20 -69 136 -76 138 -5 2 -9 12 -9 23 0 10 -4 19 -10 19 -5 0
-12 11 -16 25 -3 14 -10 25 -15 25 -5 0 -15 12 -22 28 -6 15 -14 29 -17 32 -3
3 -28 34 -55 70 -27 36 -62 79 -77 95 -16 17 -38 45 -51 62 -12 18 -26 33 -32
33 -5 0 -19 13 -30 30 -11 16 -30 34 -42 41 -12 7 -21 15 -19 18 2 3 -18 22
-44 41 -27 19 -46 38 -44 42 3 5 -1 8 -8 8 -7 0 -32 18 -56 39 -24 22 -44 39
-45 38 -1 -1 -41 24 -89 56 -47 31 -89 57 -94 57 -4 0 -21 10 -38 23 -17 13
-47 29 -66 37 -19 8 -37 16 -40 20 -11 12 -181 80 -189 75 -5 -3 -11 -1 -13 4
-3 8 -210 78 -238 80 -8 0 -58 10 -110 22 -52 11 -111 22 -130 24 -82 9 -420
13 -480 6z"/>
<path d="M2000 5063 c-49 -19 -65 -24 -65 -23 0 2 -85 -31 -120 -45 -11 -5
-24 -10 -30 -10 -5 -1 -23 -8 -40 -14 -16 -7 -34 -14 -40 -15 -5 -2 -17 -6
-25 -9 -8 -4 -52 -20 -98 -36 -137 -50 -172 -72 -200 -126 -15 -29 -18 -98 -4
-119 4 -6 7 -14 7 -18 0 -27 277 -278 307 -278 6 0 9 -3 5 -6 -3 -3 20 -26 51
-52 31 -25 72 -58 90 -74 36 -31 63 -36 81 -14 6 7 16 76 21 152 6 77 22 200
36 274 15 74 27 142 28 150 0 8 3 17 6 20 3 3 16 41 28 85 13 44 27 81 31 83
12 4 3 65 -12 74 -14 9 -35 9 -57 1z"/>
<path d="M6568 5029 c-24 -13 -22 -39 7 -134 32 -102 67 -264 60 -275 -3 -5
-1 -11 4 -14 10 -7 40 -289 40 -383 0 -46 31 -61 74 -34 18 11 43 31 56 45 14
14 31 26 38 26 8 0 11 5 8 10 -3 6 -2 10 4 10 6 0 29 18 53 40 24 22 51 42 60
45 9 4 19 14 22 23 3 9 15 22 25 27 23 12 175 135 167 135 -3 0 3 9 15 21 26
26 49 80 49 116 0 14 -9 46 -21 70 -18 37 -31 48 -92 77 -102 48 -130 59 -147
61 -8 1 -27 7 -42 13 -71 30 -84 35 -98 38 -8 2 -62 21 -120 42 -138 52 -142
53 -162 41z"/>
<path d="M2008 3403 c-19 -21 -63 -95 -83 -139 -8 -17 -21 -36 -29 -44 -9 -7
-16 -21 -16 -31 0 -11 -4 -19 -9 -19 -5 0 -15 -16 -22 -35 -7 -19 -15 -33 -17
-30 -4 4 -18 -21 -98 -174 -47 -90 -53 -129 -29 -191 7 -19 14 -31 14 -25 1 5
8 0 16 -12 34 -49 76 -54 409 -51 391 4 371 -12 234 180 -37 51 -72 98 -78
105 -5 7 -10 15 -10 19 0 3 -9 19 -21 35 -11 16 -17 29 -12 29 4 0 3 4 -4 8
-13 8 -120 223 -153 307 -32 83 -60 104 -92 68z"/>
<path d="M6518 3353 c-47 -116 -146 -315 -162 -325 -6 -4 -8 -8 -3 -8 11 0
-96 -163 -169 -257 -92 -118 -86 -143 37 -143 41 0 83 -1 94 -1 11 0 116 0
233 0 191 0 217 2 255 20 53 25 69 39 85 74 19 45 15 109 -13 163 -14 27 -25
55 -25 62 0 6 -4 12 -8 12 -4 0 -23 29 -42 64 -19 35 -37 63 -41 61 -3 -2 -6
1 -6 8 0 10 -25 57 -73 137 -5 8 -28 48 -51 88 -36 63 -45 72 -70 72 -23 0
-32 -6 -41 -27z"/>
<path d="M3075 2144 c-13 -14 -15 -27 -9 -68 4 -28 8 -58 9 -66 1 -8 5 -22 8
-30 3 -8 11 -51 17 -95 7 -44 17 -86 22 -92 7 -9 7 -13 -1 -13 -7 0 -10 -4 -6
-10 3 -5 15 -60 26 -122 11 -62 28 -128 36 -146 16 -34 66 -88 76 -81 3 2 14
-5 26 -15 12 -11 21 -14 21 -8 0 7 10 8 30 2 18 -5 30 -5 30 1 0 5 6 9 13 9
17 0 84 45 131 88 20 18 36 31 36 29 0 -5 78 63 123 106 16 15 32 27 35 27 4
0 33 24 65 53 31 29 57 51 57 48 0 -3 9 5 19 16 11 12 25 23 32 25 16 5 15 58
-1 68 -7 5 -54 18 -104 29 -119 28 -256 72 -256 82 0 5 -6 6 -13 3 -15 -5
-158 55 -297 126 -53 28 -100 50 -103 50 -3 0 -13 -7 -22 -16z"/>
<path d="M5429 2121 c-20 -9 -43 -21 -50 -27 -23 -18 -198 -91 -304 -127 -105
-36 -220 -68 -317 -87 -49 -10 -59 -15 -64 -36 -8 -30 7 -45 179 -189 64 -54
117 -103 117 -108 0 -6 3 -8 6 -4 4 3 38 -21 77 -55 104 -90 172 -114 242 -88
30 11 74 60 91 100 14 32 62 286 109 577 4 21 0 36 -10 47 -20 20 -30 19 -76
-3z"/>
</g>
</svg>
